…
### (4) Using select and filter and piping

``` r
select(gapminder, country, continent)
```

    ## # A tibble: 1,704 x 2
    ##        country continent
    ##         <fctr>    <fctr>
    ##  1 Afghanistan      Asia
    ##  2 Afghanistan      Asia
    ##  3 Afghanistan      Asia
    ##  4 Afghanistan      Asia
    ##  5 Afghanistan      Asia
    ##  6 Afghanistan      Asia
    ##  7 Afghanistan      Asia
    ##  8 Afghanistan      Asia
    ##  9 Afghanistan      Asia
    ## 10 Afghanistan      Asia
    ## # ... with 1,694 more rows

``` r
filter(gapminder, 
       continent != "Asia")
```

    ## # A tibble: 1,308 x 6
    ##    country continent  year lifeExp     pop gdpPercap
    ##     <fctr>    <fctr> <int>   <dbl>   <int>     <dbl>
    ##  1 Albania    Europe  1952  55.230 1282697  1601.056
    ##  2 Albania    Europe  1957  59.280 1476505  1942.284
    ##  3 Albania    Europe  1962  64.820 1728137  2312.889
    ##  4 Albania    Europe  1967  66.220 1984060  2760.197
    ##  5 Albania    Europe  1972  67.690 2263554  3313.422
    ##  6 Albania    Europe  1977  68.930 2509048  3533.004
    ##  7 Albania    Europe  1982  70.420 2780097  3630.881
    ##  8 Albania    Europe  1987  72.000 3075321  3738.933
    ##  9 Albania    Europe  1992  71.581 3326498  2497.438
    ## 10 Albania    Europe  1997  72.950 3428038  3193.055
    ## # ... with 1,298 more rows
…
