…
Task Three:
-----------

How is life expectancy changing over time on different continents?

``` r
weighted_LifExp <- gapminder %>% 
  group_by(year, continent) %>%
  summarize(weighted_lifExp = weighted.mean(lifeExp,pop))
weighted_LifExp
```

    ## # A tibble: 60 x 3
    ## # Groups:   year [?]
    ##     year continent weighted_lifExp
    ##    <int>    <fctr>           <dbl>
    ##  1  1952    Africa        38.79973
    ##  2  1952  Americas        60.23599
    ##  3  1952      Asia        42.94114
    ##  4  1952    Europe        64.90540
    ##  5  1952   Oceania        69.17040
    ##  6  1957    Africa        40.94031
    ##  7  1957  Americas        62.01806
    ##  8  1957      Asia        47.28835
    ##  9  1957    Europe        66.89364
    ## 10  1957   Oceania        70.31693
    ## # ... with 50 more rows
…
